<svg xmlns="http://www.w3.org/2000/svg" viewBox="0 0 195 176.07">
  <g transform="translate(-448 -288.657)">
    <g transform="translate(413.503 381.657)">
      <rect width="195" height="176.07" rx="5" transform="translate(229.497 83.07) rotate(180)" fill="#fff"/>
      <g transform="translate(24.981 17.697)">
        <g transform="translate(11 3.149)">
          <path d="M402.235,228.034h81.856a3.419,3.419,0,0,0,3.416-3.42h0a3.416,3.416,0,0,0-3.416-3.416H402.235a3.416,3.416,0,0,0-3.416,3.416h0A3.419,3.419,0,0,0,402.235,228.034Z" transform="translate(-371.481 -186.652)" fill="#cfcfcf"/>
          <path d="M402.235,228.034h81.856a3.419,3.419,0,0,0,3.416-3.42h0a3.416,3.416,0,0,0-3.416-3.416H402.235a3.416,3.416,0,0,0-3.416,3.416h0A3.419,3.419,0,0,0,402.235,228.034Z" transform="translate(-371.481 -221.652)" fill="#cfcfcf"/>
          <path d="M402.235,228.034h81.856a3.419,3.419,0,0,0,3.416-3.42h0a3.416,3.416,0,0,0-3.416-3.416H402.235a3.416,3.416,0,0,0-3.416,3.416h0A3.419,3.419,0,0,0,402.235,228.034Z" transform="translate(-371.481 -239.652)" fill="#cfcfcf"/>
          <path d="M402.235,228.034h81.856a3.419,3.419,0,0,0,3.416-3.42h0a3.416,3.416,0,0,0-3.416-3.416H402.235a3.416,3.416,0,0,0-3.416,3.416h0A3.419,3.419,0,0,0,402.235,228.034Z" transform="translate(-371.481 -257.652)" fill="#cfcfcf"/>
          <path d="M402.235,228.034h81.856a3.419,3.419,0,0,0,3.416-3.42h0a3.416,3.416,0,0,0-3.416-3.416H402.235a3.416,3.416,0,0,0-3.416,3.416h0A3.419,3.419,0,0,0,402.235,228.034Z" transform="translate(-371.481 -204.652)" fill="#cfcfcf"/>
        </g>
        <path d="M.834,0H42.368A.834.834,0,0,1,43.2.834V76.42a.834.834,0,0,1-.834.834H.835A.835.835,0,0,1,0,76.42V.834A.834.834,0,0,1,.834,0Z" transform="translate(136.636 -33.04)" fill="#0fd40a"/>
      </g>
      <path d="M0,0H195a0,0,0,0,1,0,0V45.984a3.086,3.086,0,0,1-3.086,3.086H3.086A3.086,3.086,0,0,1,0,45.984V0A0,0,0,0,1,0,0Z" transform="translate(229.497 -43.93) rotate(180)" fill="#b4b4b4"/>
    </g>
  </g>
</svg>
