<svg xmlns="http://www.w3.org/2000/svg" viewBox="0 0 262.023 177.837">
  <g transform="translate(-1238.988 -288.081)">
    <g transform="translate(-4.955 735.508) rotate(-30)">
      <rect width="276" height="46" rx="5" transform="translate(1232 354)" fill="#e8e8e8"/>
      <rect width="2" height="16" transform="translate(1246 354)"/>
      <rect width="2" height="16" transform="translate(1287 354)"/>
      <rect width="2" height="16" transform="translate(1328 354)"/>
      <rect width="2" height="16" transform="translate(1369 354)"/>
      <rect width="2" height="16" transform="translate(1410 354)"/>
      <rect width="2" height="16" transform="translate(1451 354)"/>
      <rect width="2" height="16" transform="translate(1492 354)"/>
      <rect width="1" height="8" transform="translate(1251 354)"/>
      <rect width="1" height="8" transform="translate(1292 354)"/>
      <rect width="1" height="8" transform="translate(1333 354)"/>
      <rect width="1" height="8" transform="translate(1374 354)"/>
      <rect width="1" height="8" transform="translate(1415 354)"/>
      <rect width="1" height="8" transform="translate(1456 354)"/>
      <rect width="1" height="8" transform="translate(1271 354)"/>
      <rect width="1" height="8" transform="translate(1312 354)"/>
      <rect width="1" height="8" transform="translate(1353 354)"/>
      <rect width="1" height="8" transform="translate(1394 354)"/>
      <rect width="1" height="8" transform="translate(1435 354)"/>
      <rect width="1" height="8" transform="translate(1476 354)"/>
      <rect width="1" height="8" transform="translate(1255 354)"/>
      <rect width="1" height="8" transform="translate(1296 354)"/>
      <rect width="1" height="8" transform="translate(1337 354)"/>
      <rect width="1" height="8" transform="translate(1378 354)"/>
      <rect width="1" height="8" transform="translate(1419 354)"/>
      <rect width="1" height="8" transform="translate(1460 354)"/>
      <rect width="1" height="8" transform="translate(1275 354)"/>
      <rect width="1" height="8" transform="translate(1316 354)"/>
      <rect width="1" height="8" transform="translate(1357 354)"/>
      <rect width="1" height="8" transform="translate(1398 354)"/>
      <rect width="1" height="8" transform="translate(1439 354)"/>
      <rect width="1" height="8" transform="translate(1480 354)"/>
      <rect width="1" height="8" transform="translate(1259 354)"/>
      <rect width="1" height="8" transform="translate(1300 354)"/>
      <rect width="1" height="8" transform="translate(1341 354)"/>
      <rect width="1" height="8" transform="translate(1382 354)"/>
      <rect width="1" height="8" transform="translate(1423 354)"/>
      <rect width="1" height="8" transform="translate(1464 354)"/>
      <rect width="1" height="8" transform="translate(1279 354)"/>
      <rect width="1" height="8" transform="translate(1320 354)"/>
      <rect width="1" height="8" transform="translate(1361 354)"/>
      <rect width="1" height="8" transform="translate(1402 354)"/>
      <rect width="1" height="8" transform="translate(1443 354)"/>
      <rect width="1" height="8" transform="translate(1484 354)"/>
      <rect width="1" height="8" transform="translate(1263 354)"/>
      <rect width="1" height="8" transform="translate(1304 354)"/>
      <rect width="1" height="8" transform="translate(1345 354)"/>
      <rect width="1" height="8" transform="translate(1386 354)"/>
      <rect width="1" height="8" transform="translate(1427 354)"/>
      <rect width="1" height="8" transform="translate(1468 354)"/>
      <rect width="1" height="8" transform="translate(1283 354)"/>
      <rect width="1" height="8" transform="translate(1324 354)"/>
      <rect width="1" height="8" transform="translate(1365 354)"/>
      <rect width="1" height="8" transform="translate(1406 354)"/>
      <rect width="1" height="8" transform="translate(1447 354)"/>
      <rect width="1" height="8" transform="translate(1488 354)"/>
      <rect width="1" height="12" transform="translate(1267 354)"/>
      <rect width="1" height="12" transform="translate(1308 354)"/>
      <rect width="1" height="12" transform="translate(1349 354)"/>
      <rect width="1" height="12" transform="translate(1390 354)"/>
      <rect width="1" height="12" transform="translate(1431 354)"/>
      <rect width="1" height="12" transform="translate(1472 354)"/>
    </g>
  </g>
</svg>
